<?xml version="1.0" encoding="utf-8"?>
<!-- Generator: Adobe Illustrator 24.0.0, SVG Export Plug-In . SVG Version: 6.00 Build 0)  -->
<svg version="1.1" id="Layer_1" xmlns="http://www.w3.org/2000/svg" xmlns:xlink="http://www.w3.org/1999/xlink" x="0px" y="0px"
	 viewBox="0 0 290.3 90" style="enable-background:new 0 0 290.3 90;" xml:space="preserve">
<style type="text/css">
	.st0{clip-path:url(#SVGID_2_);}
	.st1{clip-path:url(#SVGID_4_);}
	.st2{clip-path:url(#SVGID_6_);}
	.st3{clip-path:url(#SVGID_8_);}
	.st4{clip-path:url(#SVGID_10_);}
	.st5{clip-path:url(#SVGID_12_);}
	.st6{clip-path:url(#SVGID_14_);}
	.st7{clip-path:url(#SVGID_16_);}
	.st8{clip-path:url(#SVGID_18_);}
	.st9{clip-path:url(#SVGID_20_);}
	.st10{clip-path:url(#SVGID_22_);}
	.st11{clip-path:url(#SVGID_24_);}
	.st12{clip-path:url(#SVGID_26_);}
	.st13{clip-path:url(#SVGID_28_);}
	.st14{clip-path:url(#SVGID_30_);}
	.st15{clip-path:url(#SVGID_32_);}
	.st16{clip-path:url(#SVGID_34_);}
	.st17{clip-path:url(#SVGID_36_);}
	.st18{clip-path:url(#SVGID_38_);}
	.st19{clip-path:url(#SVGID_40_);}
	.st20{clip-path:url(#SVGID_42_);}
	.st21{clip-path:url(#SVGID_44_);}
	.st22{clip-path:url(#SVGID_46_);}
	.st23{clip-path:url(#SVGID_48_);}
	.st24{clip-path:url(#SVGID_50_);}
	.st25{fill:none;}
</style>
<g>
	<g>
		<g>
			<defs>
				<rect id="SVGID_1_" x="5.8" y="4.4" width="280.3" height="56.5"/>
			</defs>
			<clipPath id="SVGID_2_">
				<use xlink:href="#SVGID_1_"  style="overflow:visible;"/>
			</clipPath>
			<path class="st0" d="M10.9,49c1.9,2.7,4.2,5,6.9,6.9l9.4-16.2L10.9,49z"/>
		</g>
	</g>
	<g>
		<g>
			<defs>
				<rect id="SVGID_3_" x="5.8" y="4.4" width="280.3" height="56.5"/>
			</defs>
			<clipPath id="SVGID_4_">
				<use xlink:href="#SVGID_3_"  style="overflow:visible;"/>
			</clipPath>
			<path class="st1" d="M17.7,9.5c-2.7,1.9-5,4.2-6.9,6.9L27,25.8L17.7,9.5z"/>
		</g>
	</g>
	<g>
		<g>
			<defs>
				<rect id="SVGID_5_" x="5.8" y="4.4" width="280.3" height="56.5"/>
			</defs>
			<clipPath id="SVGID_6_">
				<use xlink:href="#SVGID_5_"  style="overflow:visible;"/>
			</clipPath>
			<path class="st2" d="M46,6.9c-2.9-1.3-6-2.2-9.4-2.5v18.7L46,6.9z"/>
		</g>
	</g>
	<g>
		<g>
			<defs>
				<rect id="SVGID_7_" x="5.8" y="4.4" width="280.3" height="56.5"/>
			</defs>
			<clipPath id="SVGID_8_">
				<use xlink:href="#SVGID_7_"  style="overflow:visible;"/>
			</clipPath>
			<path class="st3" d="M22.1,58.5c2.9,1.3,6.1,2.2,9.4,2.5V42.2L22.1,58.5z"/>
		</g>
	</g>
	<g>
		<g>
			<defs>
				<rect id="SVGID_9_" x="5.8" y="4.4" width="280.3" height="56.5"/>
			</defs>
			<clipPath id="SVGID_10_">
				<use xlink:href="#SVGID_9_"  style="overflow:visible;"/>
			</clipPath>
			<path class="st4" d="M57.3,16.3c-1.9-2.7-4.2-5-6.9-6.9L41,25.6L57.3,16.3z"/>
		</g>
	</g>
	<g>
		<g>
			<defs>
				<rect id="SVGID_11_" x="5.8" y="4.4" width="280.3" height="56.5"/>
			</defs>
			<clipPath id="SVGID_12_">
				<use xlink:href="#SVGID_11_"  style="overflow:visible;"/>
			</clipPath>
			<path class="st5" d="M50.4,55.9c2.7-1.9,5-4.2,6.9-6.9l-16.2-9.4L50.4,55.9z"/>
		</g>
	</g>
	<g>
		<g>
			<defs>
				<rect id="SVGID_13_" x="5.8" y="4.4" width="280.3" height="56.5"/>
			</defs>
			<clipPath id="SVGID_14_">
				<use xlink:href="#SVGID_13_"  style="overflow:visible;"/>
			</clipPath>
			<path class="st6" d="M62.3,30.1c-0.3-3.3-1.2-6.5-2.5-9.4l-16.2,9.4H62.3z"/>
		</g>
	</g>
	<g>
		<g>
			<defs>
				<rect id="SVGID_15_" x="5.8" y="4.4" width="280.3" height="56.5"/>
			</defs>
			<clipPath id="SVGID_16_">
				<use xlink:href="#SVGID_15_"  style="overflow:visible;"/>
			</clipPath>
			<path class="st7" d="M5.8,35.2c0.3,3.3,1.2,6.5,2.5,9.4l16.2-9.4C24.5,35.2,5.8,35.2,5.8,35.2z"/>
		</g>
	</g>
	<g>
		<g>
			<defs>
				<rect id="SVGID_17_" x="5.8" y="4.4" width="280.3" height="56.5"/>
			</defs>
			<clipPath id="SVGID_18_">
				<use xlink:href="#SVGID_17_"  style="overflow:visible;"/>
			</clipPath>
			<path class="st8" d="M8.3,20.8c-1.3,2.9-2.2,6-2.5,9.4h18.7L8.3,20.8z"/>
		</g>
	</g>
	<g>
		<g>
			<defs>
				<rect id="SVGID_19_" x="5.8" y="4.4" width="280.3" height="56.5"/>
			</defs>
			<clipPath id="SVGID_20_">
				<use xlink:href="#SVGID_19_"  style="overflow:visible;"/>
			</clipPath>
			<path class="st9" d="M43.6,35.2l16.2,9.4c1.3-2.9,2.2-6,2.5-9.4C62.3,35.2,43.6,35.2,43.6,35.2z"/>
		</g>
	</g>
	<g>
		<g>
			<defs>
				<rect id="SVGID_21_" x="5.8" y="4.4" width="280.3" height="56.5"/>
			</defs>
			<clipPath id="SVGID_22_">
				<use xlink:href="#SVGID_21_"  style="overflow:visible;"/>
			</clipPath>
			<path class="st10" d="M31.5,4.4c-3.3,0.3-6.5,1.2-9.4,2.5l9.4,16.2V4.4z"/>
		</g>
	</g>
	<g>
		<g>
			<defs>
				<rect id="SVGID_23_" x="5.8" y="4.4" width="280.3" height="56.5"/>
			</defs>
			<clipPath id="SVGID_24_">
				<use xlink:href="#SVGID_23_"  style="overflow:visible;"/>
			</clipPath>
			<path class="st11" d="M36.6,61c3.3-0.3,6.5-1.2,9.4-2.5l-9.4-16.2V61z"/>
		</g>
	</g>
	<g>
		<g>
			<defs>
				<rect id="SVGID_25_" x="5.8" y="4.4" width="280.3" height="56.5"/>
			</defs>
			<clipPath id="SVGID_26_">
				<use xlink:href="#SVGID_25_"  style="overflow:visible;"/>
			</clipPath>
			<path class="st12" d="M58.8,7.6c0.5,0,1.3,0.1,1.3-0.6c0-0.5-0.5-0.6-0.9-0.6h-1.1v1.3L58.8,7.6L58.8,7.6z M58.2,9.8h-0.5V5.9
				h1.7c1,0,1.4,0.4,1.4,1.1c0,0.8-0.5,1-1.2,1.1l1.2,1.7h-0.6L59,8h-0.8V9.8z M61.8,7.8c0-1.7-1.2-2.9-2.9-2.9S56,6.1,56,7.8
				s1.2,2.9,2.9,2.9S61.8,9.5,61.8,7.8 M55.5,7.8c0-1.9,1.5-3.4,3.4-3.4s3.4,1.5,3.4,3.4s-1.5,3.4-3.4,3.4
				C57,11.3,55.5,9.7,55.5,7.8"/>
		</g>
	</g>
	<g>
		<g>
			<defs>
				<rect id="SVGID_27_" x="5.8" y="4.4" width="280.3" height="56.5"/>
			</defs>
			<clipPath id="SVGID_28_">
				<use xlink:href="#SVGID_27_"  style="overflow:visible;"/>
			</clipPath>
			<path class="st13" d="M94.9,26.4c-0.2-2.5-2.9-4.2-5.5-4.2c-6.4,0-7.6,5.9-7.6,10.5c0,5.4,1.6,10.5,7.3,10.5
				c2.8,0,5.3-1.4,5.7-4.1h3.8c-0.4,4.4-4.8,7.2-9.8,7.2C81.1,46.3,78,40,78,32.7c0-6.4,2.8-13.8,11.5-13.6c5,0.1,8.8,2.6,9.2,7.3
				C98.7,26.4,94.9,26.4,94.9,26.4z"/>
		</g>
	</g>
	<g>
		<g>
			<defs>
				<rect id="SVGID_29_" x="5.8" y="4.4" width="280.3" height="56.5"/>
			</defs>
			<clipPath id="SVGID_30_">
				<use xlink:href="#SVGID_29_"  style="overflow:visible;"/>
			</clipPath>
			<path class="st14" d="M114.1,34.9c0.1-3-1.3-5.4-4.6-5.4c-2.8,0-4.5,2.4-4.5,5.4H114.1z M104.9,37.3c-0.3,3.2,1.1,6.5,4.5,6.5
				c2.7,0,4-1,4.4-3.7h3.6c-0.5,4.1-3.7,6.2-8,6.2c-5.8,0-8.1-4.1-8.1-9.4s2.7-9.7,8.4-9.7c5.4,0.1,8,3.5,8,8.5v1.7L104.9,37.3
				L104.9,37.3z"/>
		</g>
	</g>
	<g>
		<g>
			<defs>
				<rect id="SVGID_31_" x="5.8" y="4.4" width="280.3" height="56.5"/>
			</defs>
			<clipPath id="SVGID_32_">
				<use xlink:href="#SVGID_31_"  style="overflow:visible;"/>
			</clipPath>
			<path class="st15" d="M124.6,30.3L124.6,30.3c1.2-2.3,3.8-3.2,5.6-3.2c1.3,0,6.9,0.3,6.9,6.1v12.5h-3.4V34.3c0-3-1.3-4.6-4.2-4.6
				c0,0-1.9-0.1-3.3,1.3c-0.5,0.5-1.4,1.3-1.4,4.8v9.8h-3.4v-18h3.4v2.7H124.6z"/>
		</g>
	</g>
	<g>
		<g>
			<defs>
				<rect id="SVGID_33_" x="5.8" y="4.4" width="280.3" height="56.5"/>
			</defs>
			<clipPath id="SVGID_34_">
				<use xlink:href="#SVGID_33_"  style="overflow:visible;"/>
			</clipPath>
			<path class="st16" d="M142.4,27.6v-3.9l3.4-1.1v4.9h4.2V30h-4.2v11.6c0,1.3,1,1.9,2.2,1.9c0.5,0,1.3-0.1,1.8-0.2V46
				c-0.8,0-1.6,0.2-2.3,0.2c-0.8,0-1.5,0-2.3-0.2c-0.5-0.1-1.4-0.4-2-1.2c-0.6-0.9-0.8-0.9-0.8-3.4V30.1h-3.1v-2.5H142.4z"/>
		</g>
	</g>
	<g>
		<g>
			<defs>
				<rect id="SVGID_35_" x="5.8" y="4.4" width="280.3" height="56.5"/>
			</defs>
			<clipPath id="SVGID_36_">
				<use xlink:href="#SVGID_35_"  style="overflow:visible;"/>
			</clipPath>
			<path class="st17" d="M165.1,27.6h3.4v18.1h-3.4V43H165c-1.4,2.3-3.7,3.2-6.2,3.2c-3.8,0-6-2.9-6-6.5V27.6h3.4v10.7
				c0,3.1,0.7,5.5,4,5.5c1.4,0,3.3-0.7,4-2.6c0.6-1.7,0.7-3.8,0.7-4.3v-9.3C164.9,27.6,165.1,27.6,165.1,27.6z"/>
		</g>
	</g>
	<g>
		<g>
			<defs>
				<rect id="SVGID_37_" x="5.8" y="4.4" width="280.3" height="56.5"/>
			</defs>
			<clipPath id="SVGID_38_">
				<use xlink:href="#SVGID_37_"  style="overflow:visible;"/>
			</clipPath>
			<path class="st18" d="M176.5,45.7h-3.4V27.6h3.4v3.5h0.1c0.5-2.5,2.8-3.8,5.3-3.8c0.4,0,0.8,0,1.2,0v3.2c-0.5-0.2-1-0.2-1.5-0.2
				c-4.3,0.1-5.1,2.4-5.1,6.3V45.7z"/>
		</g>
	</g>
	<g>
		<g>
			<defs>
				<rect id="SVGID_39_" x="5.8" y="4.4" width="280.3" height="56.5"/>
			</defs>
			<clipPath id="SVGID_40_">
				<use xlink:href="#SVGID_39_"  style="overflow:visible;"/>
			</clipPath>
			<polygon class="st19" points="193.2,52.6 189.7,52.6 192.5,45.6 184.9,27.6 188.8,27.6 194.4,41.9 200.2,27.6 203.9,27.6 			"/>
		</g>
	</g>
	<g>
		<g>
			<defs>
				<rect id="SVGID_41_" x="5.8" y="4.4" width="280.3" height="56.5"/>
			</defs>
			<clipPath id="SVGID_42_">
				<use xlink:href="#SVGID_41_"  style="overflow:visible;"/>
			</clipPath>
			<polygon class="st20" points="206.5,45.7 206.5,19.7 212.1,19.7 212.1,41.4 223.3,41.4 223.3,45.7 			"/>
		</g>
	</g>
	<g>
		<g>
			<defs>
				<rect id="SVGID_43_" x="5.8" y="4.4" width="280.3" height="56.5"/>
			</defs>
			<clipPath id="SVGID_44_">
				<use xlink:href="#SVGID_43_"  style="overflow:visible;"/>
			</clipPath>
			<path class="st21" d="M226.7,27.6h5.4v18.1h-5.4V27.6z M226.6,19.7h5.8v4.7h-5.8V19.7z"/>
		</g>
	</g>
	<g>
		<g>
			<defs>
				<rect id="SVGID_45_" x="5.8" y="4.4" width="280.3" height="56.5"/>
			</defs>
			<clipPath id="SVGID_46_">
				<use xlink:href="#SVGID_45_"  style="overflow:visible;"/>
			</clipPath>
			<path class="st22" d="M242.7,29.7l0.1,0.1c1.1-1.7,2.8-2.7,5.6-2.7c1.8,0,5.3,1.3,6,4c0.3,1.1,0.4,2.3,0.4,2.9v11.8h-5.4v-11
				c0-2-0.6-4.1-3.2-4.1c-1.7,0-3.2,1.5-3.3,4.1v10.9h-5.4V27.6h5.4v2.1H242.7z"/>
		</g>
	</g>
	<g>
		<g>
			<defs>
				<rect id="SVGID_47_" x="5.8" y="4.4" width="280.3" height="56.5"/>
			</defs>
			<clipPath id="SVGID_48_">
				<use xlink:href="#SVGID_47_"  style="overflow:visible;"/>
			</clipPath>
			<polygon class="st23" points="265.3,34.9 265.4,35 270.7,27.4 276.7,27.4 270.5,35.3 277.1,45.7 270.8,45.7 265.4,35.8 
				265.3,35.9 265.3,45.7 259.9,45.7 259.9,19.7 265.3,19.7 			"/>
		</g>
	</g>
	<g>
		<g>
			<defs>
				<rect id="SVGID_49_" x="5.8" y="4.4" width="280.3" height="56.5"/>
			</defs>
			<clipPath id="SVGID_50_">
				<use xlink:href="#SVGID_49_"  style="overflow:visible;"/>
			</clipPath>
			<path class="st24" d="M282.6,30.5c0.5,0,1.3,0.1,1.3-0.6c0-0.5-0.5-0.6-0.9-0.6h-1.1v1.3L282.6,30.5L282.6,30.5z M281.9,32.7
				h-0.5v-3.9h1.7c1,0,1.4,0.4,1.4,1.1c0,0.8-0.5,1-1.2,1.1l1.2,1.7h-0.6l-1.1-1.7H282v1.7H281.9z M285.6,30.8
				c0-1.7-1.2-2.9-2.9-2.9c-1.7,0-2.9,1.2-2.9,2.9c0,1.7,1.2,2.9,2.9,2.9S285.6,32.5,285.6,30.8 M279.3,30.8c0-1.9,1.5-3.4,3.4-3.4
				s3.4,1.5,3.4,3.4c0,1.9-1.5,3.4-3.4,3.4S279.3,32.7,279.3,30.8"/>
		</g>
	</g>
</g>
<g>
	<path class="st25" d="M209,70c0.1,0,0.2,0,0.3,0C209.2,70,209.1,70,209,70z"/>
	<path d="M240.2,77.4c-0.1-2.1,0-4.2,0-6.4c0-0.6,0-1.2,0-1.8c-0.4,0-0.7,0-1.1,0c0,0.4-0.1,0.8-0.1,1.2c-0.1,0-0.1,0.1-0.2,0.1
		c-0.1-0.1-0.2-0.3-0.3-0.4c-2-2-5.3-1.3-6.1,1.4c-0.3,1.1-0.4,2.5-0.3,3.7c0.2,1.9,1.4,3,3.1,3.3c1.4,0.2,2.7-0.2,3.7-1.5
		c0,0.7,0.1,1.3,0,1.8c-0.2,1.1-0.9,1.9-2,2.1c-1.1,0.3-2.3,0.2-3-0.8c-0.5-0.7-0.9-0.6-1.5-0.5c0,1.1,0.7,1.7,1.6,2.1
		c0.4,0.1,0.7,0.2,1.1,0.4c0.7,0,1.4,0,2,0C239.6,81.5,240.3,79.7,240.2,77.4z M238.4,76.1c-0.9,1.7-3.1,1.8-4.3,0.3
		c-1.1-1.4-1.1-4,0-5.4c1.1-1.3,3.1-1.4,4.1,0.1c0.5,0.8,0.7,1.7,1.1,2.6C238.9,74.6,238.8,75.4,238.4,76.1z"/>
	<path d="M179.4,72.2c-0.8-0.4-1.7-0.7-2.5-1c-0.8-0.3-1.6-0.6-2.3-1c-1.1-0.7-1.4-2.1-0.6-3c1-1.1,2.3-1.2,3.7-1
		c1.1,0.2,1.8,0.8,1.9,1.9c0.4,0,0.8,0,1.3,0c-0.1-1.1-0.5-1.9-1.4-2.4c-1.6-1.1-4.4-1-5.9,0.2c-1.8,1.4-1.8,4,0.1,5.3
		c0.8,0.6,1.8,0.9,2.8,1.3c0.7,0.3,1.4,0.4,2.1,0.8c1.3,0.6,1.6,2,0.9,3.2c-1,1.6-4.3,1.9-5.5,0.4c-0.4-0.5-0.5-1.1-0.8-1.6
		c-0.3,0-0.7,0-1.1,0c0.1,1.8,1.2,3.2,2.8,3.6c1.5,0.3,3,0.2,4.4-0.5c1.2-0.5,1.8-1.5,1.9-2.8C181.1,74,180.6,72.9,179.4,72.2z"/>
	<path d="M226.2,65.8c-0.2-0.6-0.6-0.6-1.1-0.6c-0.5,0-0.7,0.2-0.9,0.7c-0.8,2.2-1.7,4.3-2.6,6.5c-0.8,2-1.6,4.1-2.4,6.2
		c1,0.3,1.4,0,1.6-0.9c0.2-0.7,0.5-1.4,0.8-2.1c0.1-0.4,0.3-0.6,0.8-0.6c1.1,0,2.2,0,3.2,0c0.9,0,2.1-0.3,2.7,0.2
		c0.6,0.4,0.9,1.6,1.1,2.5c0.3,1,0.8,1,1.7,0.8c0-0.2-0.1-0.3-0.1-0.4C229.5,74,227.8,69.9,226.2,65.8z M222.3,73.8
		c0.9-2.4,1.9-4.8,2.9-7.4c1,2.6,1.9,4.9,2.8,7.4C226.1,73.8,224.3,73.8,222.3,73.8z"/>
	<path d="M87.6,65.7c-0.2-0.5-0.5-0.5-0.9-0.5c-0.5,0-0.8,0-1,0.6c-1,2.6-2.1,5.3-3.1,7.9c-0.6,1.6-1.3,3.2-1.9,4.8
		c0.9,0.3,1.4,0,1.6-0.8c0.2-0.7,0.6-1.4,0.8-2.1c0.1-0.4,0.4-0.5,0.8-0.5c1.1,0,2.2,0,3.2,0c0.9,0,2-0.3,2.7,0.1
		c0.6,0.5,0.9,1.6,1.1,2.5c0.3,0.9,0.8,1.2,1.7,0.9c0-0.1,0-0.2,0-0.2C91,74,89.3,69.9,87.6,65.7z M83.8,73.8c1-2.4,1.9-4.8,2.9-7.4
		c1,2.5,1.9,4.9,2.8,7.4C87.6,73.8,85.8,73.8,83.8,73.8z"/>
	<path d="M163.3,67.8c0,0.8,0,1.7,0,2.6c-0.3-0.3-0.6-0.5-0.8-0.7c-2-1.5-4.8-0.8-5.7,1.5c-0.7,1.8-0.7,3.6,0.1,5.4
		c1,2.4,3.8,3,5.8,1.3c0.2-0.2,0.4-0.4,0.7-0.6c0,0.5,0.1,0.8,0.1,1.2c0.4,0,0.7,0,1,0c0-4.4,0-8.8,0-13.2c-0.4,0-0.7,0-1.1,0
		C163.3,66.2,163.3,67,163.3,67.8z M162.6,76.4c-0.5,1.1-1.5,1.5-2.7,1.4c-1.1-0.1-1.8-0.8-2.1-1.8c-0.2-0.7-0.3-1.4-0.4-2.1
		c0.1-0.7,0.2-1.3,0.4-1.9c0.4-1.2,1.2-1.8,2.3-1.8c1.2,0,2.2,0.4,2.7,1.6C163.5,73.2,163.4,74.8,162.6,76.4z"/>
	<path d="M250.7,74.1c-0.2-1-0.3-2-0.6-2.8c-1.1-2.7-5-3.2-6.8-0.9c-1.5,1.9-1.5,5.1,0,7c1.2,1.5,2.8,1.7,4.5,1.3
		c1.5-0.3,2.5-1.5,2.7-3.3c-0.5,0.2-1.1,0.3-1.2,0.6c-0.9,1.5-2,2.1-3.6,1.7c-1.4-0.4-2.2-1.8-2.1-3.5
		C245.8,74.1,248.1,74.1,250.7,74.1z M246.2,70c1.8,0,2.9,1.2,2.9,3c-1.9,0-3.8,0-5.7,0C243.4,71.4,244.7,70.1,246.2,70z"/>
	<path d="M204.2,74.1c-0.2-1-0.3-1.8-0.6-2.6c-0.5-1.5-1.5-2.3-3-2.5c-1.7-0.2-3.1,0.2-4.1,1.7c-1.3,2.1-1.2,4.3,0,6.4
		c0.9,1.5,2.5,2,4.5,1.6c1.5-0.3,2.6-1.4,2.9-3.1c-0.7-0.2-1.1-0.1-1.4,0.7c-0.3,0.8-1.1,1.3-2,1.4c-2,0.3-3.6-1.2-3.5-3.6
		C199.4,74.1,201.7,74.1,204.2,74.1z M200.1,70c1.5,0.1,2.6,1.3,2.6,3c-1.9,0-3.8,0-5.7,0C197.2,71.1,198.4,69.9,200.1,70z"/>
	<path d="M154.8,74.2c-0.2-1.1-0.3-2-0.6-2.8c-1-2.6-4.5-3.2-6.5-1.2c-1.4,1.5-1.6,3.3-1.3,5.1c0.5,2.8,2.4,4,5.2,3.5
		c1.5-0.3,2.7-1.6,2.8-3.1c-0.7-0.2-1,0-1.4,0.6c-0.3,0.5-0.9,1.1-1.5,1.3c-2.1,0.9-4.1-0.9-4-3.4C149.9,74.2,152.2,74.2,154.8,74.2
		z M150.3,70c1.8-0.1,2.9,1,3.1,3c-2,0-3.8,0-5.7,0C147.7,71.4,148.8,70.1,150.3,70z"/>
	<path d="M187.6,69c-0.6-0.1-1.3-0.1-1.9,0c-1.5,0.2-2.4,1.2-2.4,2.5c0.6,0.2,1.1,0.1,1.4-0.7c0.1-0.3,0.4-0.5,0.7-0.6
		c0.9-0.4,1.8-0.5,2.7,0.1c0.9,0.6,0.8,1.5,0.8,2.5c-0.7,0-1.2,0-1.8,0c-0.6,0-1.2,0.1-1.8,0.2c-1.9,0.5-2.8,1.9-2.4,3.7
		c0.4,1.5,2,2.4,3.7,2c0.8-0.2,1.5-0.7,2.3-1.1c0,0.2,0,0.5,0.1,0.8c0.4,0,0.7,0,1.1,0c0-2.3,0-4.5,0-6.7
		C189.9,70.2,189.1,69.3,187.6,69z M188.5,76.1c-0.5,1.5-2.2,2.1-3.6,1.4c-0.7-0.4-0.9-0.9-0.9-1.7c0-0.8,0.5-1.4,1.2-1.5
		c1.1-0.3,2.3-0.3,3.7-0.5C188.8,74.7,188.8,75.5,188.5,76.1z"/>
	<path d="M114,69c-1.2,0-2.2,0.4-3.1,1.3c0-1.7,0-3.4,0-5c-0.4,0-0.7,0-1,0c0,4.5,0,8.9,0,13.2c0.4,0,0.7,0,1.1,0c0-1.7,0-3.4,0-5.1
		c0-0.7,0.2-1.5,0.5-2.1c0.5-1,1.6-1.5,2.7-1.2c1.1,0.2,1.7,1,1.8,2.2c0,0.5,0,0.9,0,1.4c0,1.6,0,3.3,0,4.9c0.4,0,0.8,0,1,0
		c0-2.3,0.1-4.6,0-6.9C116.9,69.9,115.7,69,114,69z"/>
	<path d="M127.7,73c-0.2-2.3-1.8-3.9-3.8-4c-2.4-0.2-4.1,1-4.7,3.3c-0.3,1.2-0.3,2.4,0.1,3.6c0.6,1.8,2.1,2.9,3.9,3
		c1.8,0.1,3.4-1,4-2.8c0.2-0.7,0.3-1.4,0.5-2.1c0,0-0.1,0-0.1,0C127.8,73.6,127.8,73.3,127.7,73z M123.9,77.7
		c-1.2,0.2-2.3-0.3-2.9-1.3c-0.9-1.5-0.9-3.1-0.1-4.7c0.5-1.1,1.4-1.7,2.7-1.6c1.2,0,2,0.7,2.5,1.7c0.3,0.7,0.4,1.4,0.6,2.1
		C126.6,75.9,125.5,77.5,123.9,77.7z"/>
	<path d="M210.9,73.4c-1-0.3-2-0.5-2.9-0.9c-0.4-0.2-0.9-0.7-0.8-1.1c0-0.4,0.4-1,0.8-1.2c0.3-0.2,0.7-0.3,1-0.3c0.1,0,0.2,0,0.3,0
		c0.9,0,1.8,0.6,2.2,1.6c0.4,0,0.7,0,1.1,0c-0.1-1.5-0.9-2.3-2.4-2.5c-2.1-0.3-3.8,0.4-4.2,1.7c-0.5,1.4,0.1,2.5,1.6,3
		c1,0.3,2,0.5,3,0.8c0.6,0.2,1.1,0.6,1.1,1.3c0,0.8-0.4,1.3-1.1,1.6c-0.2,0.1-0.4,0.2-0.7,0.2c-1.3,0.3-2.8,0-3.3-1.7
		c-0.4,0-0.7,0-1.1,0c0,1.3,0.7,2.1,1.8,2.5c1.3,0.5,2.6,0.4,3.8-0.1c1.2-0.5,1.9-1.5,1.8-2.7C212.9,74.6,212.3,73.9,210.9,73.4z"/>
	<path d="M209.3,70c0.9,0,1.8,0.6,2.2,1.6c0.4,0,0.7,0,1.1,0c-0.4,0-0.7,0-1.1,0C211.1,70.6,210.2,70,209.3,70z"/>
	<path d="M210,77.7c-1.3,0.3-2.8,0-3.3-1.7c-0.4,0-0.7,0-1.1,0c0.4,0,0.8,0,1.1,0C207.2,77.7,208.7,78,210,77.7z"/>
	<path d="M100.2,74.1c0,0.6-0.1,1.3-0.2,1.8c-0.4,1.3-1.5,1.9-2.8,1.7c-1.2-0.2-1.9-1-2-2.5c0-1.7,0-3.3,0-5c0-0.3,0-0.7,0-1
		c-0.4,0-0.7,0-1.1,0c0,2.4-0.1,4.7,0,7c0.1,1.5,1.1,2.3,2.6,2.6c1.4,0.2,2.5-0.3,3.4-1.4c0.1,0.4,0.1,0.8,0.2,1.1c0.4,0,0.7,0,1,0
		c0-3.1,0-6.2,0-9.2c-0.4,0-0.7,0-1.1,0C100.2,70.9,100.2,72.5,100.2,74.1z"/>
	<path d="M256.5,69c-1.1,0-1.9,0.6-2.7,1.4c-0.1-0.5-0.1-0.8-0.2-1.2c-0.4,0-0.7,0-1,0c0,3.1,0,6.2,0,9.2c0.4,0,0.7,0,1.2,0
		c0-1.8,0-3.5,0-5.2c0-0.6,0.1-1.3,0.4-1.9c0.5-1.1,1.6-1.5,2.8-1.3c1.1,0.2,1.7,0.9,1.8,2.1c0.1,1.1,0,2.2,0.1,3.3c0,1,0,2,0,3
		c0.4,0,0.7,0,1.1,0c0-2.2,0.1-4.4,0-6.6C259.8,70,258.5,69,256.5,69z"/>
	<path d="M145.5,69.3c-2.5,0-4.6,0-6.9,0c0,0.4,0,0.7,0,1.1c1.8,0,3.4,0,5.2,0c-0.3,0.4-0.4,0.6-0.6,0.8c-1.4,1.9-2.9,3.8-4.3,5.7
		c-0.3,0.4-0.4,1-0.7,1.6c2.5,0,4.7,0,6.9,0c0-0.4,0-0.6-0.1-1c-1.8,0-3.4,0-5.2,0c1.7-2.3,3.3-4.4,4.8-6.6
		C145.1,70.5,145.2,69.9,145.5,69.3z"/>
	<path d="M265.9,77.7c-1.2,0.1-1.6-0.3-1.7-1.5c0-0.8,0-1.6,0-2.4c0-1.2,0-2.3,0-3.5c0.8,0,1.4,0,2.1,0c0-0.4,0-0.7,0-1.1
		c-0.7,0-1.4,0-2.1,0c0-0.8,0-1.6,0-2.3c-1.7,0.2-0.9,1.5-1.2,2.3c-0.6,0-1.1,0.1-1.8,0.1c0,0.4,0,0.7,0.1,1c0.6,0,1.2,0.1,1.8,0.1
		c0,0.4,0,0.7,0,1c0,1.8,0,3.7,0,5.5c0,0.8,0.3,1.6,1.1,1.8c0.7,0.2,1.5,0.1,2.3,0.1c0-0.5,0-0.8,0-1.1
		C266.3,77.7,266.1,77.7,265.9,77.7z"/>
	<path d="M105.9,75.7c0-1.3,0-2.6,0-3.9c0-0.5,0-1,0-1.6c0.8,0,1.4,0,2.1,0c0-0.4,0-0.7-0.1-1.1c-0.7,0-1.4,0-2,0c0-0.8,0-1.5,0-2.3
		c-1.8,0-0.9,1.5-1.3,2.3c-0.5,0-1.1,0-1.7,0c0,0.4,0,0.7,0,1c0.6,0,1.1,0,1.8,0c0,0.4,0,0.7,0,1c0,1.8,0,3.6,0,5.4
		c0,1.4,0.6,2,2,2.1c0.4,0,0.9-0.1,1.3-0.1c0-0.2,0-0.4,0-0.5c0-0.2,0-0.3-0.1-0.5C106.2,77.8,105.9,77.6,105.9,75.7z"/>
	<path d="M192.5,78.5c0.4,0,0.7,0,1,0c0-4.5,0-8.9,0-13.3c-0.4,0-0.7,0-1,0C192.5,69.7,192.5,74.1,192.5,78.5z"/>
	<path d="M131,70.3c-0.1-0.4-0.2-0.7-0.2-1c-0.4,0-0.7,0-1,0c0,1.6,0,3.1,0,4.6c0,1.5,0,3,0,4.6c0.4,0,0.7,0,1.1,0
		c0-1.8,0-3.5,0-5.2c0-2.4,0.7-3.2,3.2-3.4c0-0.3,0-0.6,0-0.9C132.8,68.8,131.8,69.1,131,70.3z"/>
	<path d="M135.7,78.5c0.4,0,0.7,0,1,0c0-3.1,0-6.2,0-9.3c-0.4,0-0.7,0-1,0C135.7,72.4,135.7,75.4,135.7,78.5z"/>
</g>
<path d="M135.6,66.5c0.5,0,0.9,0,1.3,0c0-0.5,0-0.8,0-1.4c-0.5,0-0.9,0.1-1.3,0.1C135.6,65.8,135.6,66.2,135.6,66.5z"/>
</svg>
